20200210_PickSamplesToOrder
…
.
               child               father               mother 
                  58                   61                   64 
          not father paternal grandmother 
                   2                    1 

FamilyRelationships %>%
  filter(Population == "YRI") %>%
  count(`Family ID`)

# A tibble: 68 x 2
   `Family ID`     n
   <chr>       <int>
 1 Y001            3
 2 Y002            3
 3 Y003            3
 4 Y004            3
 5 Y005            3
 6 Y006            3
 7 Y007            3
 8 Y009            3
 9 Y010            2
10 Y010a           1
# … with 58 more rows
…
AllCoriellSamples %>%
  filter(CellLine %in% c(SamplesAlreadyDone)) %>%
  pull(Family) %>% table() %>% table()

.
 1  2 
20 14 

AllCoriellSamples %>%
  filter(CellLine %in% c(SamplesAlreadyDone)) %>%
  dplyr::select(CellLine, `Relationship to Proband`, Family) %>%
  arrange(Family)

# A tibble: 48 x 3
   CellLine `Relationship to Proband` Family
   <chr>    <chr>                     <chr> 
 1 18486    father                    Y001  
 2 18497    child                     Y003  
 3 18499    mother                    Y003  
 4 18505    mother                    Y005  
 5 18508    mother                    Y009  
 6 18511    mother                    Y010  
 7 18858    mother                    Y012  
 8 18519    father                    Y014  
 9 18520    mother                    Y014  
10 18522    father                    Y016  
# … with 38 more rows
…
