Explore GWAS colocalizations
…
Ok wow. That is nice. H3K27Ac beta values are very strongly positively correlated with eQTL betas, as expected. We can look at other pairs of traits too, and if there is an effect, I think this is a very powerful way to assess it. But unsurprisingly, the way we have quantified splicing here with leafcutter, splicing is not really obviously correlated with anything, since a leafcutter intron excision ratio PSI that goes up for one intron necessarily means some other introns went down. Perhaps if we looked at intron retention, the effects would be more interpretable. That will be on the future to do list once we get better chRNA-seq data.

Also, let’s replot these as a clustered heatmap for matrix of correlation coefficients.

library(RColorBrewer)
# my_palette <- colorRampPalette(c("blue", "black", "yellow"))(n = 1000)

dat.tidy.for.cor %>%
  group_by(pheno_class_name) %>%
  summarise(cor = cor.test(beta.x, beta.y, method="pearson")$p.value) %>%
  separate(pheno_class_name, into=c("PhenotypeClass1", "PhenotypeClass2"), sep = ", ")

# A tibble: 31 x 3
   PhenotypeClass1       PhenotypeClass2                        cor
   <chr>                 <chr>                                <dbl>
 1 Expression (chRNA)    Expression (Geuvadis)            1.27e-  5
 2 Expression (chRNA)    Expression (YRI.Subset)          3.07e-  5
 3 Expression (chRNA)    H3K27AC                          2.18e-  6
 4 Expression (chRNA)    H3K4ME3                          1.05e-  3
 5 Expression (chRNA)    MetabolicLabelled.30min          1.79e-  8
 6 Expression (chRNA)    MetabolicLabelled.60min          3.96e-  7
 7 Expression (chRNA)    Splicing (leafcutter.YRI.Subset) 6.29e-  1
 8 Expression (Geuvadis) Expression (YRI.Subset)          0.       
 9 Expression (Geuvadis) H3K27AC                          0.       
10 Expression (Geuvadis) H3K4ME3                          2.47e-177
# … with 21 more rows
…
