CheckQTL_SNPPositionsMetagene
…
Now plot metaplot of where QTLs in relation to the phenotype. for sQTLs, I used the --group setting for permutation testing for a cluster-level test, though for now (out of convenience) i’m going to plot positions of top SNPs relative to the top intron.

First just plot distances…

First explore the data a bit… are all strands either + or - in a sensible way?

PermutationPass.dat %>%
  count(PhenotypeClass, phe_strd)

# A tibble: 69 × 3
   PhenotypeClass                 phe_strd      n
   <chr>                          <chr>     <int>
 1 CTCF                           +         50000
 2 Expression.Splicing            +          7112
 3 Expression.Splicing            -          6888
 4 Expression.Splicing.Subset_YRI +          7112
 5 Expression.Splicing.Subset_YRI -          6888
 6 H3K27AC                        +        100858
 7 H3K36ME3                       +          7112
 8 H3K36ME3                       -          6888
 9 H3K4ME1                        +        182749
10 H3K4ME3                        +         55769
# … with 59 more rows

Notice the ChIP-seq data should not technically be stranded. Let’s replace those “+” strand entries with “.”…

PermutationPass.dat <- PermutationPass.dat %>%
  mutate(phe_strd = case_when(
     PhenotypeClass %in% c("H3K27AC", "H3K4ME1", "H3K4ME3", "CTCF") ~ ".",
     TRUE ~ phe_strd
  ))

PermutationPass.dat %>%
  count(PhenotypeClass, phe_strd)

# A tibble: 69 × 3
   PhenotypeClass                 phe_strd      n
   <chr>                          <chr>     <int>
 1 CTCF                           .         50000
 2 Expression.Splicing            +          7112
 3 Expression.Splicing            -          6888
 4 Expression.Splicing.Subset_YRI +          7112
 5 Expression.Splicing.Subset_YRI -          6888
 6 H3K27AC                        .        100858
 7 H3K36ME3                       +          7112
 8 H3K36ME3                       -          6888
 9 H3K4ME1                        .        182749
10 H3K4ME3                        .         55769
# … with 59 more rows
…
PermutationPass.dat %>%
  filter(PhenotypeClass=="chRNA.IR")

# A tibble: 91,126 × 25
   PhenotypeClass phe_id      phe_chr phe_from phe_to phe_strd n_var_in_cis
   <chr>          <chr>       <chr>      <dbl>  <dbl> <chr>           <dbl>
 1 chRNA.IR       IntID.52863 chr1      944804 945038 -                 173
 2 chRNA.IR       IntID.52986 chr1      945426 945514 -                 167
 3 chRNA.IR       IntID.53017 chr1      945657 946169 -                 167
 4 chRNA.IR       IntID.53078 chr1      946290 946398 -                 161
 5 chRNA.IR       IntID.53261 chr1      948236 948486 -                 156
 6 chRNA.IR       IntID.53340 chr1      948607 951123 -                 167
 7 chRNA.IR       IntID.53829 chr1      951242 951996 -                 152
 8 chRNA.IR       IntID.53899 chr1      952143 952408 -                 152
 9 chRNA.IR       IntID.53951 chr1      952604 953171 -                 153
10 chRNA.IR       IntID.54005 chr1      953292 953778 -                 153
# … with 91,116 more rows, and 18 more variables: dist_phe_var <dbl>,
#   var_id <chr>, var_chr <chr>, var_from <dbl>, var_to <dbl>, dof1 <dbl>,
#   dof2 <dbl>, bml1 <dbl>, bml2 <dbl>, nom_pval <dbl>, r_squared <dbl>,
#   slope <dbl>, slope_se <dbl>, adj_emp_pval <dbl>, adj_beta_pval <dbl>,
#   q <dbl>, grp_id <chr>, n_phe_in_grp <dbl>
…
