20220920_Explore_chRNA_sQTLs
…
#How many YRI poly A QTLs
coloc.results.tidycolocalized %>%
  filter(PC=="Expression.Splicing.Subset_YRI")

# A tibble: 1,741 × 11
   snp      beta beta_se        p Locus PC    P     iteration ColocPr RegionalPr
   <chr>   <dbl>   <dbl>    <dbl> <chr> <chr> <chr>     <dbl>   <dbl>      <dbl>
 1 7:121…  0.561  0.119  9.18e- 6 ENSG… Expr… ENSG…         1   0.835      0.897
 2 7:199…  0.553  0.106  1.13e- 6 ENSG… Expr… ENSG…         1   0.308      0.531
 3 7:817…  1.69   0.143  8.35e-20 ENSG… Expr… ENSG…         1   0.896      0.923
 4 2:201…  0.388  0.0812 7.01e- 6 ENSG… Expr… ENSG…         1   0.940      0.963
 5 7:962… -0.335  0.0848 1.59e- 4 ENSG… Expr… ENSG…         3   0.634      0.697
 6 17:72…  0.324  0.0620 1.15e- 6 ENSG… Expr… ENSG…         1   0.959      0.986
 7 7:268…  0.554  0.110  2.71e- 6 ENSG… Expr… ENSG…         2   0.975      0.977
 8 6:822… -0.185  0.0337 4.12e- 7 ENSG… Expr… ENSG…         1   0.621      0.787
 9 11:33…  0.281  0.0475 6.45e- 8 ENSG… Expr… ENSG…         2   0.276      0.528
10 17:35… -0.526  0.108  4.95e- 6 ENSG… Expr… ENSG…         3   0.905      0.954
# … with 1,731 more rows, and 1 more variable: TopSNPFinemapPr <dbl>

#Of which, how many also contain chromatin
coloc.results.tidycolocalized %>%
  filter(PC=="Expression.Splicing.Subset_YRI")

# A tibble: 1,741 × 11
   snp      beta beta_se        p Locus PC    P     iteration ColocPr RegionalPr
   <chr>   <dbl>   <dbl>    <dbl> <chr> <chr> <chr>     <dbl>   <dbl>      <dbl>
 1 7:121…  0.561  0.119  9.18e- 6 ENSG… Expr… ENSG…         1   0.835      0.897
 2 7:199…  0.553  0.106  1.13e- 6 ENSG… Expr… ENSG…         1   0.308      0.531
 3 7:817…  1.69   0.143  8.35e-20 ENSG… Expr… ENSG…         1   0.896      0.923
 4 2:201…  0.388  0.0812 7.01e- 6 ENSG… Expr… ENSG…         1   0.940      0.963
 5 7:962… -0.335  0.0848 1.59e- 4 ENSG… Expr… ENSG…         3   0.634      0.697
 6 17:72…  0.324  0.0620 1.15e- 6 ENSG… Expr… ENSG…         1   0.959      0.986
 7 7:268…  0.554  0.110  2.71e- 6 ENSG… Expr… ENSG…         2   0.975      0.977
 8 6:822… -0.185  0.0337 4.12e- 7 ENSG… Expr… ENSG…         1   0.621      0.787
 9 11:33…  0.281  0.0475 6.45e- 8 ENSG… Expr… ENSG…         2   0.276      0.528
10 17:35… -0.526  0.108  4.95e- 6 ENSG… Expr… ENSG…         3   0.905      0.954
# … with 1,731 more rows, and 1 more variable: TopSNPFinemapPr <dbl>
…
# A tibble: 6 × 9
  gene_name rna_type uaRNA coRNA            rtRNA ctRNA lncRNA snoRNA pseudogene
  <chr>     <chr>    <chr> <chr>            <chr> <chr> <chr>  <chr>  <chr>     
1 ncRNA_1   incRNA   .     .                .     .     .      .      .         
2 ncRNA_2   incRNA   .     .                .     .     .      .      .         
3 ncRNA_3   srtRNA   .     .                ENSG… .     .      .      .         
4 ncRNA_4   srtRNA   .     .                ENSG… .     .      .      .         
5 ncRNA_5   coRNA    .     ENSG00000217801… .     .     .      .      .         
6 ncRNA_8   rtRNA    .     .                ncRN… .     .      .      .         

ncRNA.annotations %>%
  count(rna_type) %>%
  arrange(desc(n))

# A tibble: 45 × 2
   rna_type         n
   <chr>        <int>
 1 srtRNA        5023
 2 incRNA        4924
 3 uaRNA         1609
 4 coRNA          362
 5 uaRNA,coRNA    303
 6 uaRNA,srtRNA   230
 7 rtRNA          164
 8 coRNA,srtRNA    90
 9 coRNA,pseudo    78
10 ctRNA           71
# … with 35 more rows

coloc.results.tidycolocalized %>%
  filter(PC == "chRNA.Expression_ncRNA")

# A tibble: 1,760 × 11
   snp      beta beta_se        p Locus PC    P     iteration ColocPr RegionalPr
   <chr>   <dbl>   <dbl>    <dbl> <chr> <chr> <chr>     <dbl>   <dbl>      <dbl>
 1 11:64… -0.420  0.0572 1.26e-10 ENSG… chRN… ncRN…         2   0.992      0.993
 2 17:48… -0.310  0.0816 2.69e- 4 ENSG… chRN… ncRN…         1   0.675      0.790
 3 2:372… -0.611  0.122  2.90e- 6 ENSG… chRN… ncRN…         1   0.850      0.880
 4 1:331…  1.02   0.193  8.69e- 7 ENSG… chRN… ncRN…         2   0.818      0.832
 5 17:47… -0.460  0.0894 1.72e- 6 ENSG… chRN… ENSG…         1   0.972      0.996
 6 7:873… -0.961  0.119  4.28e-12 ENSG… chRN… ENSG…         2   0.862      0.884
 7 7:873… -0.961  0.119  4.28e-12 ENSG… chRN… ENSG…         2   0.852      0.880
 8 6:822… -0.385  0.102  3.15e- 4 ENSG… chRN… ENSG…         1   0.621      0.787
 9 17:45… -1.03   0.147  5.36e-10 ENSG… chRN… ENSG…         2   0.962      0.968
10 17:35…  0.490  0.0999 4.39e- 6 ENSG… chRN… ENSG…         1   0.846      0.973
# … with 1,750 more rows, and 1 more variable: TopSNPFinemapPr <dbl>
…
