20230420_FindGWASeQTLsQTLColocsToPlot
…
CandidateGenesToHighlight %>%
  filter(SNP_group == "Unproductive sQTL cluster") %>%
  group_by(eQTL, GWAS.Loci) %>%
  filter(any(abs(x.beta.in.y)>0.25 & IntronGroup=="Unproductive")) %>%
  ungroup() %>%
  distinct(GWAS.Loci)

# A tibble: 50 × 1
   GWAS.Loci                
   <chr>                    
 1 chr16_30091839_GCST004606
 2 chr17_46676279_GCST004606
 3 chr12_6181375_GCST004616 
 4 chr17_46534416_GCST004626
 5 chr16_30049923_GCST004617
 6 chr17_46676279_GCST004617
 7 chr22_41459919_GCST007800
 8 chr16_29855474_GCST004599
 9 chr6_10535358_GCST004609 
10 chr12_8698552_GCST004619 
# … with 40 more rows
…
