20230808_GWAS_sQTLs_QQ_and_ColocExample
…
hyprcoloc.results %>%
  filter(ColocalizedClusterContainsGWASTrait) %>%
  inner_join(
    sQTLs %>%
      dplyr::select(Phenotype=P1,PhenotypeClass=PC1, everything())
  ) %>%
  filter(sQTL.type=="u-sQTL")

# A tibble: 408 × 51
   GWAS.Loci   GWAS.LeadSNP.Ch… GWAS.LeadSNP.Pos GWAS.accession HyprcolocIterat…
   <chr>       <chr>            <chr>            <chr>                     <dbl>
 1 chr1_15519… chr1             155194689        GCST004131                    3
 2 chr10_3040… chr10            30401447         GCST004131                    2
 3 chr16_3009… chr16            30091839         GCST004606                    6
 4 chr17_4609… chr17            46096136         GCST004606                    3
 5 chr17_4667… chr17            46676279         GCST004606                    2
 6 chr17_4667… chr17            46676279         GCST004606                    2
 7 chr17_4667… chr17            46676279         GCST004606                    2
 8 chr2_24175… chr2             241759225        GCST004606                    7
 9 chr9_13643… chr9             136432610        GCST004606                    1
10 chr1_95235… chr1             95235667         GCST004616                    1
# … with 398 more rows, and 46 more variables: PosteriorColocalizationPr <dbl>,
#   RegionalAssociationPr <dbl>, TopCandidateSNP <chr>,
#   ProportionPosteriorPrExplainedByTopSNP <dbl>,
#   IsColocalizedWithSomething <lgl>, Trait <chr>, PhenotypeClass <chr>,
#   Phenotype <chr>, ColocalizedClusterContainsGWASTrait <lgl>,
#   gwas.trait <chr>, PhenotypeRecodes <chr>, Category <chr>, GeneLocus <chr>,
#   p_permutation.x <dbl>, beta.x <dbl>, beta_se.x <dbl>, …
…
