20230502_GetColocsForCarlos
…
hyprcoloc.results.toplot %>%
  filter(Category2 == "sQTL+eQTL colocs") %>%
  filter(PhenotypeClass == "Expression.Splicing") %>%
  distinct(Trait)

# A tibble: 108 × 1
   Trait                                 
   <chr>                                 
 1 Expression.Splicing;ENSG00000179163.11
 2 Expression.Splicing;ENSG00000142089.16
 3 Expression.Splicing;ENSG00000149922.10
 4 Expression.Splicing;ENSG00000159314.11
 5 Expression.Splicing;ENSG00000176681.14
 6 Expression.Splicing;ENSG00000238083.7 
 7 Expression.Splicing;ENSG00000167468.17
 8 Expression.Splicing;ENSG00000125755.19
 9 Expression.Splicing;ENSG00000128604.20
10 Expression.Splicing;ENSG00000132763.15
# … with 98 more rows

hyprcoloc.results.toplot %>%
  filter(Category == "sQTL+eQTL colocs") %>%
  filter(PhenotypeClass == "Expression.Splicing") %>%
  distinct(Trait)

# A tibble: 76 × 1
   Trait                                 
   <chr>                                 
 1 Expression.Splicing;ENSG00000179163.11
 2 Expression.Splicing;ENSG00000142089.16
 3 Expression.Splicing;ENSG00000149922.10
 4 Expression.Splicing;ENSG00000159314.11
 5 Expression.Splicing;ENSG00000176681.14
 6 Expression.Splicing;ENSG00000238083.7 
 7 Expression.Splicing;ENSG00000167468.17
 8 Expression.Splicing;ENSG00000125755.19
 9 Expression.Splicing;ENSG00000132763.15
10 Expression.Splicing;ENSG00000123427.17
# … with 66 more rows
…
