2024-01-17_CheckYangsJunctionAnnotator
…
Ok, let’s read in our previous intron annotations and compare…

Previous.Annotations <- read_tsv("../data/IntronAnnotationsFromYang.Updated.tsv.gz")

Annotations.filtered.joined <- Annotations.filtered %>%
  inner_join(Previous.Annotations)

Annotations.filtered.joined %>%
  distinct(NewAnnotation)

# A tibble: 31 × 1
   NewAnnotation                     
   <chr>                             
 1 retained_intron.gencode           
 2 protein_coding.gencode            
 3 nonsense_mediated_decay.YN        
 4 processed_transcript.gencode      
 5 nonsense_mediated_decay.pstopcodon
 6 stable.YY                         
 7 nonsense_mediated_decay.far3p     
 8 stable.UTR_junction               
 9 nonsense_mediated_decay.far5p     
10 nonsense_mediated_decay.gencode   
# … with 21 more rows
…
