2024-04-26_eQTL_subtypePlieotropy
…
GTEx.dat %>%
  distinct(tissue)

# A tibble: 54 × 1
   tissue                     
   <chr>                      
 1 ovary                      
 2 brain_cerebellar_hemisphere
 3 nerve_tibial               
 4 breast_mammary_tissue      
 5 testis                     
 6 colon_transverse           
 7 fallopian_tube             
 8 brain_caudate_basal_ganglia
 9 lung                       
10 esophagus_muscularis       
# … with 44 more rows
…
dat.500kbwindow <- Sys.glob("../code/GTEx/BenSubsetSNPs_QTLs/*/NominalPass.qqnorm.txt.tabix.gz") %>%
  setNames(str_replace(., "../code/GTEx/BenSubsetSNPs_QTLs/(.+?)/NominalPass.qqnorm.txt.tabix.gz", "\\1")) %>%
  lapply(read_tsv) %>%
  bind_rows(.id="tissue") %>%
  inner_join(GTEx.dat %>%
               dplyr::select(-c(1:5)) %>%
               distinct() %>%
               separate(TopSNP, into=c("SNP_chrom", "var_from", "SNP_ref", "SNP_alt"), sep=":", remove=F, convert=T) %>%
               mutate(var_chr = paste0("chr", SNP_chrom)),
             by=c("var_chr", "var_from")) 

dat.500kbwindow %>%
  distinct(TopSNP)

# A tibble: 913 × 1
   TopSNP        
   <chr>         
 1 1:1661169:C:A 
 2 1:2556224:C:A 
 3 1:6205308:A:G 
 4 1:9943262:G:A 
 5 1:10211630:C:G
 6 1:11635653:T:G
 7 1:13769535:C:A
 8 1:15586903:A:T
 9 1:16206527:C:T
10 1:19801518:G:T
# … with 903 more rows

GTEx.dat %>%
  distinct(TopSNP)

# A tibble: 913 × 1
   TopSNP            
   <chr>             
 1 2:75660970:G:A    
 2 7:30500783:G:T    
 3 19:41586462:A:T   
 4 12:6321571:G:A    
 5 12:4607406:C:A    
 6 12:6184753:G:A    
 7 1:41105645:A:T    
 8 4:6609511:TG:T    
 9 19:54962842:G:A   
10 6:155314147:G:GTTC
# … with 903 more rows
…
