MakeFinalFigs_Fig4
…
Check SRSF10 for Jon

SpearmanCorr %>%
  distinct(Intron, .keep_all=T) %>%
  filter(substr(DonorSeq, 3,4)=="GA") %>%
  filter(q<0.1) 

# A tibble: 641 × 15
   Intron          Leafcutter.ID DonorSeq DonorScore treatment dose.nM Cell.type
   <chr>           <chr>         <chr>         <dbl> <chr>       <dbl> <chr>    
 1 chr1:2189781:2… chr1:2189781… CAGAGTA…       4.53 DMSO            0 LCL      
 2 chr1:8365974:8… chr1:8365974… AAGAGTA…       5.52 DMSO            0 LCL      
 3 chr1:18921121:… chr1:1892112… AGGAGTA…       6.27 DMSO            0 LCL      
 4 chr1:23863271:… chr1:2386327… AGGAGTA…       2.87 DMSO            0 LCL      
 5 chr1:23875662:… chr1:2387566… AAGAGTA…       4.83 DMSO            0 LCL      
 6 chr1:28151059:… chr1:2815105… AGGAGTA…       5.30 DMSO            0 LCL      
 7 chr1:28172527:… chr1:2817252… AGGAGTA…       5.30 DMSO            0 LCL      
 8 chr1:37493814:… chr1:3749381… GAGAGTA…       5.59 DMSO            0 LCL      
 9 chr1:41028726:… chr1:4102872… AAGAGTA…       6.42 DMSO            0 LCL      
10 chr1:44313228:… chr1:4431322… TAGAGTA…       4.50 DMSO            0 LCL      
# … with 631 more rows, and 8 more variables: LibraryType <chr>, rep <dbl>,
#   PSI <dbl>, Counts <dbl>, n <dbl>, spearman <dbl>, spearman.p <dbl>, q <dbl>
…
