MakeFinalFigs_Fig2
…
      dplyr::select(Locus=GeneLocus, PC=PC2, P=P2) %>%
      mutate(TopMolQTLAroundGene = T)
  ) %>%
  replace_na(list(TopMolQTLAroundGene=F)) %>%
  group_by(Locus, snp) %>%
  filter(any(PC=="Expression.Splicing.Subset_YRI")) %>%
  ungroup() %>%
  group_by(Locus, PC) %>%
  summarise(ContainsTopMolQTL = any(TopMolQTLAroundGene)) %>%
  ungroup() %>%
  group_by(PC) %>%
  summarise(FracContainsTop = sum(ContainsTopMolQTL)/n()) %>%
  ungroup()

# A tibble: 21 × 2
   PC                             FracContainsTop
   <chr>                                    <dbl>
 1 APA_Nuclear                              0.939
 2 APA_Total                                1    
 3 CTCF                                     0    
 4 Expression.Splicing.Subset_YRI           0.999
 5 H3K27AC                                  0.701
 6 H3K36ME3                                 1    
 7 H3K4ME1                                  0.612
 8 H3K4ME3                                  0.763
 9 MetabolicLabelled.30min                  1    
10 MetabolicLabelled.30min.IER              0    
# … with 11 more rows
…
